<?xml version="1.0" encoding="UTF-8"?>
<glyph name="uni00A7" format="1">
  <advance width="556"/>
  <unicode hex="00a7"/>
  <outline>
    <contour>
      <point x="279" y="456" type="curve" smooth="yes"/>
      <point x="274.918" y="457.633"/>
      <point x="270.169" y="459.266"/>
      <point x="267.475" y="459.266" type="curve" smooth="yes"/>
      <point x="266.869" y="459.266"/>
      <point x="266.367" y="459.184"/>
      <point x="266" y="459" type="curve" smooth="yes"/>
      <point x="265" y="459"/>
      <point x="258" y="458"/>
      <point x="251" y="455" type="curve" smooth="yes"/>
      <point x="245" y="453"/>
      <point x="237" y="450"/>
      <point x="233" y="449" type="curve" smooth="no"/>
      <point x="229" y="446"/>
      <point x="226" y="443"/>
      <point x="223" y="436" type="curve" smooth="yes"/>
      <point x="221" y="431"/>
      <point x="217" y="425"/>
      <point x="214" y="422" type="curve" smooth="yes"/>
      <point x="211" y="419"/>
      <point x="207" y="416"/>
      <point x="206" y="414" type="curve" smooth="yes"/>
      <point x="204" y="412"/>
      <point x="202" y="406"/>
      <point x="201" y="400" type="curve" smooth="yes"/>
      <point x="200" y="394"/>
      <point x="199" y="385"/>
      <point x="199" y="379" type="curve" smooth="yes"/>
      <point x="199" y="373"/>
      <point x="200" y="363"/>
      <point x="201" y="357" type="curve" smooth="yes"/>
      <point x="202" y="350"/>
      <point x="205" y="344"/>
      <point x="207" y="342" type="curve" smooth="yes"/>
      <point x="209" y="339"/>
      <point x="215" y="338"/>
      <point x="226" y="336" type="curve" smooth="yes"/>
      <point x="240" y="334"/>
      <point x="243" y="333"/>
      <point x="247" y="329" type="curve" smooth="yes"/>
      <point x="252" y="324"/>
      <point x="253" y="324"/>
      <point x="265" y="324" type="curve" smooth="yes"/>
      <point x="272" y="324"/>
      <point x="281" y="325"/>
      <point x="286" y="327" type="curve" smooth="yes"/>
      <point x="292" y="329"/>
      <point x="298" y="334"/>
      <point x="306" y="341" type="curve" smooth="yes"/>
      <point x="312" y="347"/>
      <point x="320" y="353"/>
      <point x="323" y="355" type="curve" smooth="yes"/>
      <point x="328" y="358"/>
      <point x="331" y="361"/>
      <point x="332" y="366" type="curve" smooth="yes"/>
      <point x="333" y="369"/>
      <point x="337" y="376"/>
      <point x="340" y="381" type="curve" smooth="yes"/>
      <point x="344" y="387"/>
      <point x="346" y="390"/>
      <point x="345" y="394" type="curve" smooth="yes"/>
      <point x="344" y="396"/>
      <point x="342" y="400"/>
      <point x="339" y="404" type="curve" smooth="yes"/>
      <point x="336" y="407"/>
      <point x="335" y="412"/>
      <point x="334" y="418" type="curve" smooth="yes"/>
      <point x="334" y="422"/>
      <point x="333" y="427"/>
      <point x="333" y="429" type="curve" smooth="yes"/>
      <point x="332" y="432"/>
      <point x="330" y="434"/>
      <point x="322" y="435" type="curve" smooth="yes"/>
      <point x="317" y="436"/>
      <point x="308" y="440"/>
      <point x="301" y="445" type="curve" smooth="yes"/>
      <point x="295" y="449"/>
      <point x="285" y="454"/>
    </contour>
    <contour>
      <point x="246" y="740" type="curve" smooth="yes"/>
      <point x="250" y="742"/>
      <point x="253" y="742.998"/>
      <point x="254" y="742.998" type="curve" smooth="yes"/>
      <point x="254" y="742.998"/>
      <point x="258" y="742.998"/>
      <point x="261" y="741.998" type="curve" smooth="yes"/>
      <point x="265" y="740.998"/>
      <point x="271" y="740.998"/>
      <point x="275" y="741.998" type="curve" smooth="yes"/>
      <point x="280" y="742.998"/>
      <point x="283" y="742.998"/>
      <point x="288" y="740.998" type="curve" smooth="yes"/>
      <point x="294" y="737.998"/>
      <point x="295" y="737.998"/>
      <point x="305" y="740.998" type="curve" smooth="yes"/>
      <point x="311.181" y="742.234"/>
      <point x="315.069" y="743.089"/>
      <point x="319.971" y="743.089" type="curve" smooth="yes"/>
      <point x="323" y="743.089"/>
      <point x="326.416" y="742.763"/>
      <point x="331" y="741.999" type="curve" smooth="yes"/>
      <point x="339" y="740.999"/>
      <point x="347" y="738.999"/>
      <point x="351" y="736.999" type="curve" smooth="yes"/>
      <point x="354" y="735.999"/>
      <point x="359" y="734.999"/>
      <point x="363" y="734.999" type="curve" smooth="yes"/>
      <point x="366" y="734.999"/>
      <point x="373" y="733.999"/>
      <point x="378" y="731.999" type="curve" smooth="yes"/>
      <point x="383" y="730.999"/>
      <point x="390" y="729.999"/>
      <point x="394" y="729.999" type="curve" smooth="yes"/>
      <point x="398" y="729.999"/>
      <point x="403" y="728.999"/>
      <point x="405" y="726.999" type="curve" smooth="yes"/>
      <point x="406" y="725.999"/>
      <point x="408" y="721.999"/>
      <point x="409" y="716.999" type="curve" smooth="no"/>
      <point x="411" y="712.999"/>
      <point x="411" y="705.999"/>
      <point x="412" y="701.999" type="curve" smooth="yes"/>
      <point x="412" y="697.999"/>
      <point x="413" y="689.999"/>
      <point x="414" y="683.999" type="curve" smooth="yes"/>
      <point x="416" y="676.999"/>
      <point x="416" y="670.999"/>
      <point x="415" y="664.999" type="curve" smooth="yes"/>
      <point x="414" y="660.999"/>
      <point x="411" y="652.999"/>
      <point x="408" y="647.999" type="curve" smooth="yes"/>
      <point x="406" y="642.999"/>
      <point x="402" y="637.999"/>
      <point x="400" y="637.999" type="curve" smooth="yes"/>
      <point x="398" y="636.999"/>
      <point x="393" y="637.999"/>
      <point x="387" y="639.999" type="curve" smooth="yes"/>
      <point x="382" y="641.999"/>
      <point x="375" y="643.999"/>
      <point x="372" y="645.999" type="curve" smooth="yes"/>
      <point x="369" y="646.999"/>
      <point x="363" y="649.999"/>
      <point x="359" y="650.999" type="curve" smooth="yes"/>
      <point x="355" y="651.999"/>
      <point x="350" y="652.999"/>
      <point x="346" y="651.999" type="curve" smooth="yes"/>
      <point x="342" y="651.999"/>
      <point x="337" y="651.999"/>
      <point x="333" y="653.999" type="curve" smooth="yes"/>
      <point x="329" y="655.999"/>
      <point x="321" y="658.999"/>
      <point x="316" y="659.999" type="curve" smooth="yes"/>
      <point x="311" y="660.999"/>
      <point x="298" y="662.999"/>
      <point x="286" y="662.999" type="curve" smooth="yes"/>
      <point x="269" y="663.999"/>
      <point x="265" y="663.999"/>
      <point x="261" y="660.999" type="curve" smooth="yes"/>
      <point x="259" y="658.999"/>
      <point x="253" y="655.999"/>
      <point x="249" y="653.999" type="curve" smooth="yes"/>
      <point x="244" y="651.999"/>
      <point x="240" y="649.999"/>
      <point x="239" y="649.999" type="curve" smooth="yes"/>
      <point x="238" y="649.999"/>
      <point x="235" y="647.999"/>
      <point x="233" y="645.999" type="curve" smooth="yes"/>
      <point x="229" y="642.999"/>
      <point x="228" y="641.999"/>
      <point x="228" y="632.999" type="curve" smooth="yes"/>
      <point x="228" y="627.999"/>
      <point x="227" y="621.999"/>
      <point x="225" y="618.999" type="curve" smooth="yes"/>
      <point x="224" y="615.999"/>
      <point x="222" y="606.999"/>
      <point x="221" y="599.999" type="curve" smooth="no"/>
      <point x="221" y="586.999"/>
      <point x="221" y="586.999"/>
      <point x="232" y="576.999" type="curve" smooth="yes"/>
      <point x="238" y="570.999"/>
      <point x="246" y="564.999"/>
      <point x="250" y="561.999" type="curve" smooth="yes"/>
      <point x="253" y="558.999"/>
      <point x="259" y="555.999"/>
      <point x="263" y="554.999" type="curve" smooth="yes"/>
      <point x="266" y="553.999"/>
      <point x="271" y="550.999"/>
      <point x="273" y="549.999" type="curve" smooth="yes"/>
      <point x="275" y="547.999"/>
      <point x="280" y="545.999"/>
      <point x="284" y="544.999" type="curve" smooth="yes"/>
      <point x="288" y="543.999"/>
      <point x="293" y="542.999"/>
      <point x="296" y="542.999" type="curve" smooth="yes"/>
      <point x="298" y="542.999"/>
      <point x="304" y="539.999"/>
      <point x="308" y="537.999" type="curve" smooth="yes"/>
      <point x="314" y="533.999"/>
      <point x="319" y="531.999"/>
      <point x="327" y="530.999" type="curve" smooth="yes"/>
      <point x="333" y="530.999"/>
      <point x="339" y="529.999"/>
      <point x="341" y="529.999" type="curve" smooth="yes"/>
      <point x="343" y="528.999"/>
      <point x="347" y="528.999"/>
      <point x="350" y="528.999" type="curve" smooth="yes"/>
      <point x="353" y="528.999"/>
      <point x="357" y="526.999"/>
      <point x="361" y="521.999" type="curve" smooth="no"/>
      <point x="365" y="518.999"/>
      <point x="374" y="512.999"/>
      <point x="381" y="508.999" type="curve" smooth="yes"/>
      <point x="390" y="503.999"/>
      <point x="397" y="498.999"/>
      <point x="404" y="490.999" type="curve" smooth="yes"/>
      <point x="410" y="484.999"/>
      <point x="416" y="477.999"/>
      <point x="419" y="473.999" type="curve" smooth="yes"/>
      <point x="421" y="469.999"/>
      <point x="425" y="464.999"/>
      <point x="427" y="462.999" type="curve" smooth="yes"/>
      <point x="430" y="458.999"/>
      <point x="431" y="454.999"/>
      <point x="432" y="442.999" type="curve" smooth="yes"/>
      <point x="433" y="433.999"/>
      <point x="434" y="424.999"/>
      <point x="435" y="421.999" type="curve" smooth="yes"/>
      <point x="436" y="418.999"/>
      <point x="437" y="413.999"/>
      <point x="436" y="410.999" type="curve" smooth="yes"/>
      <point x="435" y="407.999"/>
      <point x="433" y="400.999"/>
      <point x="432" y="396.999" type="curve" smooth="yes"/>
      <point x="429" y="389.999"/>
      <point x="429" y="386.999"/>
      <point x="431" y="379.999" type="curve" smooth="no"/>
      <point x="431" y="374.999"/>
      <point x="432" y="368.999"/>
      <point x="432" y="365.999" type="curve" smooth="yes"/>
      <point x="432" y="361.999"/>
      <point x="430" y="358.999"/>
      <point x="426" y="354.999" type="curve" smooth="yes"/>
      <point x="423" y="351.999"/>
      <point x="419" y="346.999"/>
      <point x="418" y="342.999" type="curve" smooth="no"/>
      <point x="416" y="339.999"/>
      <point x="412" y="332.999"/>
      <point x="409" y="327.999" type="curve" smooth="yes"/>
      <point x="406" y="321.999"/>
      <point x="402" y="317.999"/>
      <point x="397" y="315.999" type="curve" smooth="yes"/>
      <point x="393" y="313.999"/>
      <point x="385" y="308.999"/>
      <point x="379" y="303.999" type="curve" smooth="yes"/>
      <point x="373" y="298.999"/>
      <point x="368" y="293.999"/>
      <point x="367" y="291.999" type="curve" smooth="yes"/>
      <point x="367" y="289.999"/>
      <point x="367" y="285.999"/>
      <point x="369" y="283.999" type="curve" smooth="yes"/>
      <point x="371" y="280.999"/>
      <point x="375" y="277.999"/>
      <point x="379" y="275.999" type="curve" smooth="yes"/>
      <point x="383" y="273.999"/>
      <point x="390" y="271.999"/>
      <point x="395" y="270.999" type="curve" smooth="yes"/>
      <point x="400" y="269.999"/>
      <point x="406" y="266.999"/>
      <point x="409" y="264.999" type="curve" smooth="yes"/>
      <point x="412" y="263.999"/>
      <point x="416" y="259.999"/>
      <point x="418" y="256.999" type="curve" smooth="yes"/>
      <point x="419" y="253.999"/>
      <point x="420" y="249.999"/>
      <point x="420" y="246.999" type="curve" smooth="yes"/>
      <point x="420" y="243.999"/>
      <point x="422" y="238.999"/>
      <point x="425" y="234.999" type="curve" smooth="yes"/>
      <point x="427" y="231.999"/>
      <point x="431" y="223.999"/>
      <point x="433" y="217.999" type="curve" smooth="yes"/>
      <point x="436" y="210.999"/>
      <point x="438" y="200.999"/>
      <point x="439" y="195.999" type="curve" smooth="yes"/>
      <point x="440" y="189.999"/>
      <point x="442" y="175.999"/>
      <point x="443" y="165.999" type="curve" smooth="yes"/>
      <point x="443" y="158.666"/>
      <point x="443.444" y="149.999"/>
      <point x="443.444" y="142.962" type="curve" smooth="yes"/>
      <point x="443.444" y="139.443"/>
      <point x="443.333" y="136.332"/>
      <point x="443" y="133.999" type="curve" smooth="yes"/>
      <point x="442" y="123.999"/>
      <point x="440" y="118.999"/>
      <point x="436" y="113.999" type="curve" smooth="yes"/>
      <point x="433" y="109.999"/>
      <point x="429" y="99.999"/>
      <point x="426" y="91.999" type="curve" smooth="yes"/>
      <point x="422" y="78.999"/>
      <point x="421" y="77.999"/>
      <point x="413" y="72.999" type="curve" smooth="yes"/>
      <point x="408" y="69.999"/>
      <point x="401" y="63.999"/>
      <point x="397" y="58.999" type="curve" smooth="yes"/>
      <point x="393" y="53.999"/>
      <point x="387" y="49.999"/>
      <point x="378" y="44.999" type="curve" smooth="yes"/>
      <point x="371" y="41.999"/>
      <point x="362" y="37.999"/>
      <point x="359" y="36.999" type="curve" smooth="yes"/>
      <point x="355" y="35.999"/>
      <point x="348" y="32.999"/>
      <point x="344" y="29.999" type="curve" smooth="yes"/>
      <point x="339" y="25.999"/>
      <point x="334" y="24.999"/>
      <point x="325" y="22.999" type="curve" smooth="yes"/>
      <point x="318" y="21.999"/>
      <point x="309" y="20.999"/>
      <point x="306" y="20.999" type="curve" smooth="yes"/>
      <point x="303" y="19.999"/>
      <point x="290" y="18.999"/>
      <point x="278" y="17.999" type="curve" smooth="yes"/>
      <point x="260" y="15.999"/>
      <point x="256" y="14.999"/>
      <point x="249" y="10.999" type="curve" smooth="yes"/>
      <point x="244.854" y="7.54395"/>
      <point x="242.618" y="6.47656"/>
      <point x="239.322" y="6.47656" type="curve" smooth="yes"/>
      <point x="237.849" y="6.47656"/>
      <point x="236.163" y="6.69043"/>
      <point x="234" y="6.99902" type="curve" smooth="yes"/>
      <point x="230" y="6.99902"/>
      <point x="221" y="8.99902"/>
      <point x="214" y="9.99902" type="curve" smooth="yes"/>
      <point x="207" y="11.999"/>
      <point x="195" y="12.999"/>
      <point x="187" y="12.999" type="curve" smooth="yes"/>
      <point x="174" y="12.999"/>
      <point x="173" y="12.999"/>
      <point x="168" y="17.999" type="curve" smooth="yes"/>
      <point x="163" y="22.999"/>
      <point x="161" y="23.999"/>
      <point x="154" y="23.999" type="curve" smooth="yes"/>
      <point x="149" y="23.999"/>
      <point x="143" y="23.999"/>
      <point x="140" y="24.999" type="curve" smooth="yes"/>
      <point x="138" y="25.999"/>
      <point x="131" y="29.999"/>
      <point x="125" y="33.999" type="curve" smooth="yes"/>
      <point x="120" y="37.999"/>
      <point x="115" y="41.999"/>
      <point x="114" y="43.999" type="curve" smooth="yes"/>
      <point x="114" y="44.999"/>
      <point x="113" y="60.999"/>
      <point x="113" y="78.999" type="curve" smooth="yes"/>
      <point x="113" y="110.999"/>
      <point x="113" y="111.999"/>
      <point x="117" y="115.999" type="curve" smooth="yes"/>
      <point x="120" y="118.999"/>
      <point x="123" y="119.999"/>
      <point x="133" y="119.999" type="curve" smooth="yes"/>
      <point x="143" y="120.999"/>
      <point x="146" y="119.999"/>
      <point x="152" y="116.999" type="curve" smooth="yes"/>
      <point x="157" y="113.999"/>
      <point x="164" y="111.999"/>
      <point x="172" y="111.999" type="curve" smooth="yes"/>
      <point x="181" y="110.999"/>
      <point x="187" y="108.999"/>
      <point x="198" y="103.999" type="curve" smooth="yes"/>
      <point x="207.333" y="98.666"/>
      <point x="210.444" y="96.8887"/>
      <point x="218.889" y="96.8887" type="curve" smooth="yes"/>
      <point x="223.111" y="96.8887"/>
      <point x="228.664" y="97.3691"/>
      <point x="237" y="98" type="curve" smooth="yes"/>
      <point x="250.995" y="99.0596"/>
      <point x="266" y="100"/>
      <point x="270" y="101" type="curve" smooth="yes"/>
      <point x="275" y="102"/>
      <point x="283" y="105"/>
      <point x="289" y="107" type="curve" smooth="yes"/>
      <point x="294" y="109"/>
      <point x="300" y="112"/>
      <point x="302" y="113" type="curve" smooth="no"/>
      <point x="303" y="115"/>
      <point x="307" y="117"/>
      <point x="310" y="119" type="curve" smooth="yes"/>
      <point x="313" y="120"/>
      <point x="316.971" y="123"/>
      <point x="319.971" y="126" type="curve" smooth="yes"/>
      <point x="322.971" y="130"/>
      <point x="327" y="137"/>
      <point x="330" y="145" type="curve" smooth="yes"/>
      <point x="333" y="153"/>
      <point x="335" y="161"/>
      <point x="335" y="163" type="curve" smooth="yes"/>
      <point x="335" y="166"/>
      <point x="334" y="173"/>
      <point x="332" y="179" type="curve" smooth="yes"/>
      <point x="329" y="187"/>
      <point x="327" y="192"/>
      <point x="322" y="197" type="curve" smooth="yes"/>
      <point x="301" y="213" type="line" smooth="yes"/>
      <point x="293" y="218"/>
      <point x="283" y="224"/>
      <point x="279" y="225" type="curve" smooth="yes"/>
      <point x="274" y="227"/>
      <point x="268" y="229"/>
      <point x="264" y="231" type="curve" smooth="yes"/>
      <point x="261" y="232"/>
      <point x="254" y="234"/>
      <point x="248" y="234" type="curve" smooth="yes"/>
      <point x="241" y="234"/>
      <point x="235" y="236"/>
      <point x="231" y="238" type="curve" smooth="yes"/>
      <point x="227" y="240"/>
      <point x="222" y="242"/>
      <point x="221" y="242" type="curve" smooth="yes"/>
      <point x="219" y="242"/>
      <point x="214" y="243"/>
      <point x="209" y="245" type="curve" smooth="yes"/>
      <point x="205" y="247"/>
      <point x="197" y="249"/>
      <point x="191" y="250" type="curve" smooth="yes"/>
      <point x="185" y="251"/>
      <point x="178" y="254"/>
      <point x="170" y="259" type="curve" smooth="yes"/>
      <point x="163" y="264"/>
      <point x="156" y="269"/>
      <point x="153" y="272" type="curve" smooth="yes"/>
      <point x="150" y="274"/>
      <point x="146" y="277"/>
      <point x="144" y="278" type="curve" smooth="yes"/>
      <point x="141" y="279"/>
      <point x="136" y="280"/>
      <point x="132" y="280" type="curve" smooth="yes"/>
      <point x="128" y="281"/>
      <point x="125" y="283"/>
      <point x="123" y="286" type="curve" smooth="yes"/>
      <point x="122" y="288"/>
      <point x="119" y="295"/>
      <point x="118" y="302" type="curve" smooth="yes"/>
      <point x="117" y="315"/>
      <point x="116" y="315"/>
      <point x="109" y="318" type="curve" smooth="yes"/>
      <point x="105" y="320"/>
      <point x="101" y="322"/>
      <point x="99" y="324" type="curve" smooth="yes"/>
      <point x="98" y="326"/>
      <point x="96" y="331"/>
      <point x="95" y="334" type="curve" smooth="no"/>
      <point x="95" y="340"/>
      <point x="95" y="344"/>
      <point x="99" y="351" type="curve" smooth="no"/>
      <point x="103" y="361"/>
      <point x="104" y="363"/>
      <point x="104" y="387" type="curve" smooth="yes"/>
      <point x="104" y="405"/>
      <point x="105" y="414"/>
      <point x="107" y="418" type="curve" smooth="yes"/>
      <point x="109" y="422"/>
      <point x="110" y="427"/>
      <point x="110" y="429" type="curve" smooth="yes"/>
      <point x="110" y="431"/>
      <point x="111" y="435"/>
      <point x="113" y="437" type="curve" smooth="yes"/>
      <point x="114" y="439"/>
      <point x="119" y="442"/>
      <point x="123" y="444" type="curve" smooth="yes"/>
      <point x="128" y="446"/>
      <point x="132" y="450"/>
      <point x="136" y="455" type="curve" smooth="yes"/>
      <point x="140" y="461"/>
      <point x="144" y="464"/>
      <point x="149" y="466" type="curve" smooth="yes"/>
      <point x="153" y="468"/>
      <point x="159" y="473"/>
      <point x="163" y="477" type="curve" smooth="yes"/>
      <point x="166" y="481"/>
      <point x="171" y="484"/>
      <point x="175" y="485" type="curve" smooth="yes"/>
      <point x="178" y="485"/>
      <point x="182" y="487"/>
      <point x="183" y="489" type="curve" smooth="no"/>
      <point x="185" y="490"/>
      <point x="186" y="492"/>
      <point x="186" y="494" type="curve" smooth="yes"/>
      <point x="186" y="495"/>
      <point x="184" y="498"/>
      <point x="181" y="500" type="curve" smooth="yes"/>
      <point x="178" y="502"/>
      <point x="173" y="506"/>
      <point x="169" y="509" type="curve" smooth="yes"/>
      <point x="165" y="512"/>
      <point x="159" y="516"/>
      <point x="155" y="517" type="curve" smooth="yes"/>
      <point x="150" y="518"/>
      <point x="145" y="521"/>
      <point x="139" y="527" type="curve" smooth="yes"/>
      <point x="133" y="534"/>
      <point x="131" y="537"/>
      <point x="130" y="544" type="curve" smooth="yes"/>
      <point x="129" y="549"/>
      <point x="126" y="556"/>
      <point x="121" y="564" type="curve" smooth="yes"/>
      <point x="117" y="571"/>
      <point x="113" y="579"/>
      <point x="113" y="582" type="curve" smooth="yes"/>
      <point x="112" y="585"/>
      <point x="113" y="595"/>
      <point x="114" y="604" type="curve" smooth="yes"/>
      <point x="115" y="612"/>
      <point x="117" y="628"/>
      <point x="118" y="637" type="curve" smooth="yes"/>
      <point x="120" y="647"/>
      <point x="121" y="659"/>
      <point x="122" y="664" type="curve" smooth="yes"/>
      <point x="124" y="673"/>
      <point x="125" y="676"/>
      <point x="136" y="687" type="curve" smooth="yes"/>
      <point x="142" y="694"/>
      <point x="149" y="700"/>
      <point x="152" y="701" type="curve" smooth="yes"/>
      <point x="154" y="702"/>
      <point x="160" y="705"/>
      <point x="165" y="708" type="curve" smooth="yes"/>
      <point x="169" y="711"/>
      <point x="178" y="716"/>
      <point x="183" y="718" type="curve" smooth="yes"/>
      <point x="188" y="721"/>
      <point x="194" y="724"/>
      <point x="197" y="725" type="curve" smooth="no"/>
      <point x="199" y="727"/>
      <point x="203" y="728"/>
      <point x="206" y="728" type="curve" smooth="yes"/>
      <point x="209" y="728"/>
      <point x="215" y="730"/>
      <point x="220" y="732" type="curve" smooth="yes"/>
      <point x="225" y="735"/>
      <point x="231" y="737"/>
      <point x="234" y="737" type="curve" smooth="yes"/>
      <point x="237" y="737"/>
      <point x="242" y="738"/>
    </contour>
  </outline>
</glyph>
