<?xml version="1.0" encoding="UTF-8"?>
<glyph name="uni00B3" format="1">
  <advance width="334"/>
  <unicode hex="00b3"/>
  <outline>
    <contour>
      <point x="147" y="766" type="curve" smooth="yes"/>
      <point x="149" y="767"/>
      <point x="159" y="767"/>
      <point x="168" y="767" type="curve" smooth="yes"/>
      <point x="178" y="767"/>
      <point x="189" y="765"/>
      <point x="194" y="764" type="curve" smooth="yes"/>
      <point x="199" y="763"/>
      <point x="209" y="761"/>
      <point x="216" y="761" type="curve" smooth="yes"/>
      <point x="227" y="761"/>
      <point x="228" y="761"/>
      <point x="232" y="757" type="curve" smooth="yes"/>
      <point x="234" y="754"/>
      <point x="238" y="750"/>
      <point x="241" y="746" type="curve" smooth="yes"/>
      <point x="246" y="741"/>
      <point x="247" y="741"/>
      <point x="260" y="741" type="curve" smooth="yes"/>
      <point x="271" y="741"/>
      <point x="273" y="740"/>
      <point x="275" y="737" type="curve" smooth="yes"/>
      <point x="277" y="735"/>
      <point x="283" y="725"/>
      <point x="289" y="716" type="curve" smooth="yes"/>
      <point x="298" y="702"/>
      <point x="301" y="697"/>
      <point x="302" y="690" type="curve" smooth="yes"/>
      <point x="302" y="685"/>
      <point x="305" y="676"/>
      <point x="308" y="670" type="curve" smooth="yes"/>
      <point x="311.455" y="663.09"/>
      <point x="312.522" y="660.478"/>
      <point x="312.522" y="651.935" type="curve" smooth="yes"/>
      <point x="312.522" y="648.114"/>
      <point x="312.309" y="643.107"/>
      <point x="312" y="636" type="curve" smooth="yes"/>
      <point x="312" y="612"/>
      <point x="312" y="612"/>
      <point x="305" y="601" type="curve" smooth="yes"/>
      <point x="301" y="594"/>
      <point x="295" y="588"/>
      <point x="291" y="585" type="curve" smooth="yes"/>
      <point x="288" y="583"/>
      <point x="282" y="578"/>
      <point x="279" y="576" type="curve" smooth="yes"/>
      <point x="276" y="573"/>
      <point x="271" y="571"/>
      <point x="268" y="570" type="curve" smooth="no"/>
      <point x="264" y="570"/>
      <point x="260" y="568"/>
      <point x="258" y="566" type="curve" smooth="no"/>
      <point x="255" y="565"/>
      <point x="254" y="562"/>
      <point x="254" y="560" type="curve" smooth="yes"/>
      <point x="254" y="557"/>
      <point x="256" y="555"/>
      <point x="263" y="552" type="curve" smooth="yes"/>
      <point x="269" y="550"/>
      <point x="273" y="547"/>
      <point x="274" y="546" type="curve" smooth="yes"/>
      <point x="275" y="545"/>
      <point x="278" y="542"/>
      <point x="282" y="540" type="curve" smooth="yes"/>
      <point x="286" y="538"/>
      <point x="290" y="534"/>
      <point x="291" y="532" type="curve" smooth="yes"/>
      <point x="293" y="529"/>
      <point x="295" y="523"/>
      <point x="295" y="518" type="curve" smooth="no"/>
      <point x="297" y="509"/>
      <point x="298" y="507"/>
      <point x="306" y="499" type="curve" smooth="yes"/>
      <point x="310" y="495"/>
      <point x="315" y="489"/>
      <point x="315" y="486" type="curve" smooth="no"/>
      <point x="316" y="484"/>
      <point x="317" y="479"/>
      <point x="319" y="475" type="curve" smooth="yes"/>
      <point x="319.709" y="472.521"/>
      <point x="320.041" y="470.668"/>
      <point x="320.041" y="468.731" type="curve" smooth="yes"/>
      <point x="320.041" y="465.202"/>
      <point x="318.938" y="461.395"/>
      <point x="317" y="453" type="curve" smooth="no"/>
      <point x="314" y="445"/>
      <point x="311" y="432"/>
      <point x="310" y="425" type="curve" smooth="yes"/>
      <point x="308" y="414"/>
      <point x="305" y="405"/>
      <point x="298" y="390" type="curve" smooth="yes"/>
      <point x="289" y="372"/>
      <point x="287" y="370"/>
      <point x="282" y="369" type="curve" smooth="yes"/>
      <point x="279" y="368"/>
      <point x="273" y="364"/>
      <point x="269" y="360" type="curve" smooth="yes"/>
      <point x="264" y="356"/>
      <point x="256" y="351"/>
      <point x="250" y="348" type="curve" smooth="yes"/>
      <point x="241" y="344"/>
      <point x="236" y="342"/>
      <point x="224" y="342" type="curve" smooth="no"/>
      <point x="214" y="341"/>
      <point x="207" y="340"/>
      <point x="200" y="337" type="curve" smooth="yes"/>
      <point x="192" y="334"/>
      <point x="187" y="333"/>
      <point x="168" y="333" type="curve" smooth="yes"/>
      <point x="163.5" y="332.75"/>
      <point x="159.688" y="332.625"/>
      <point x="156.375" y="332.625" type="curve" smooth="yes"/>
      <point x="146.438" y="332.625"/>
      <point x="141" y="333.75"/>
      <point x="135" y="336" type="curve" smooth="no"/>
      <point x="129" y="337"/>
      <point x="119" y="340"/>
      <point x="111" y="342" type="curve" smooth="yes"/>
      <point x="103" y="343"/>
      <point x="91" y="346"/>
      <point x="84" y="348" type="curve" smooth="yes"/>
      <point x="77" y="350"/>
      <point x="66" y="354"/>
      <point x="60" y="357" type="curve" smooth="yes"/>
      <point x="52" y="360"/>
      <point x="48" y="364"/>
      <point x="44" y="370" type="curve" smooth="yes"/>
      <point x="41" y="374"/>
      <point x="36" y="381"/>
      <point x="32" y="385" type="curve" smooth="yes"/>
      <point x="28" y="389"/>
      <point x="24" y="396"/>
      <point x="21" y="404" type="curve" smooth="yes"/>
      <point x="19" y="411"/>
      <point x="15" y="422"/>
      <point x="14" y="430" type="curve" smooth="no"/>
      <point x="12" y="437"/>
      <point x="12" y="445"/>
      <point x="12" y="446" type="curve" smooth="yes"/>
      <point x="13" y="448"/>
      <point x="16" y="451"/>
      <point x="19" y="453" type="curve" smooth="yes"/>
      <point x="22" y="455"/>
      <point x="28" y="457"/>
      <point x="32" y="458" type="curve" smooth="yes"/>
      <point x="36" y="458"/>
      <point x="47" y="461"/>
      <point x="55" y="463" type="curve" smooth="yes"/>
      <point x="64" y="466"/>
      <point x="71" y="467"/>
      <point x="75" y="466" type="curve" smooth="yes"/>
      <point x="78" y="466"/>
      <point x="83" y="463"/>
      <point x="87" y="460" type="curve" smooth="yes"/>
      <point x="93" y="456"/>
      <point x="95" y="453"/>
      <point x="97" y="446" type="curve" smooth="yes"/>
      <point x="99" y="441"/>
      <point x="102" y="434"/>
      <point x="104" y="431" type="curve" smooth="yes"/>
      <point x="106" y="428"/>
      <point x="110" y="424"/>
      <point x="112" y="422" type="curve" smooth="yes"/>
      <point x="114" y="419"/>
      <point x="120" y="415"/>
      <point x="125" y="411" type="curve" smooth="yes"/>
      <point x="131" y="407"/>
      <point x="140" y="403"/>
      <point x="145" y="401" type="curve" smooth="yes"/>
      <point x="151" y="399"/>
      <point x="158" y="396"/>
      <point x="161" y="395" type="curve" smooth="yes"/>
      <point x="163" y="394"/>
      <point x="167" y="393"/>
      <point x="170" y="393" type="curve" smooth="yes"/>
      <point x="173" y="393"/>
      <point x="177" y="394"/>
      <point x="180" y="396" type="curve" smooth="yes"/>
      <point x="183" y="397"/>
      <point x="189" y="401"/>
      <point x="193" y="404" type="curve" smooth="yes"/>
      <point x="198" y="407"/>
      <point x="205" y="412"/>
      <point x="210" y="416" type="curve" smooth="yes"/>
      <point x="215" y="420"/>
      <point x="221" y="424"/>
      <point x="222" y="424" type="curve" smooth="yes"/>
      <point x="224" y="424"/>
      <point x="228" y="425"/>
      <point x="231" y="427" type="curve" smooth="yes"/>
      <point x="235" y="430"/>
      <point x="237" y="432"/>
      <point x="237" y="437" type="curve" smooth="no"/>
      <point x="238" y="441"/>
      <point x="240" y="448"/>
      <point x="241" y="454" type="curve" smooth="yes"/>
      <point x="244" y="464"/>
      <point x="244" y="464"/>
      <point x="235" y="482" type="curve" smooth="yes"/>
      <point x="230" y="492"/>
      <point x="223" y="503"/>
      <point x="220" y="508" type="curve" smooth="no"/>
      <point x="216" y="512"/>
      <point x="210" y="518"/>
      <point x="206" y="519" type="curve" smooth="yes"/>
      <point x="202" y="521"/>
      <point x="194" y="524"/>
      <point x="187" y="526" type="curve" smooth="yes"/>
      <point x="175" y="529"/>
      <point x="174" y="529"/>
      <point x="166" y="526" type="curve" smooth="yes"/>
      <point x="160" y="524"/>
      <point x="154" y="524"/>
      <point x="142" y="524" type="curve" smooth="yes"/>
      <point x="130" y="525"/>
      <point x="125" y="526"/>
      <point x="123" y="528" type="curve" smooth="yes"/>
      <point x="120" y="531"/>
      <point x="120" y="535"/>
      <point x="119" y="547" type="curve" smooth="yes"/>
      <point x="119" y="556"/>
      <point x="118" y="567"/>
      <point x="117" y="572" type="curve" smooth="yes"/>
      <point x="116" y="580"/>
      <point x="116" y="581"/>
      <point x="120" y="585" type="curve" smooth="yes"/>
      <point x="123" y="588"/>
      <point x="125" y="589"/>
      <point x="133" y="589" type="curve" smooth="yes"/>
      <point x="138" y="589"/>
      <point x="149" y="588"/>
      <point x="158" y="587" type="curve" smooth="yes"/>
      <point x="172" y="586"/>
      <point x="174" y="586"/>
      <point x="183" y="591" type="curve" smooth="yes"/>
      <point x="188" y="593"/>
      <point x="198" y="597"/>
      <point x="204" y="600" type="curve" smooth="yes"/>
      <point x="216" y="604"/>
      <point x="217" y="606"/>
      <point x="221" y="614" type="curve" smooth="yes"/>
      <point x="224" y="619"/>
      <point x="228" y="625"/>
      <point x="231" y="627" type="curve" smooth="yes"/>
      <point x="234" y="630"/>
      <point x="237" y="635"/>
      <point x="238" y="638" type="curve" smooth="yes"/>
      <point x="239" y="642"/>
      <point x="239" y="648"/>
      <point x="239" y="651" type="curve" smooth="yes"/>
      <point x="238" y="654"/>
      <point x="233" y="663"/>
      <point x="228" y="672" type="curve" smooth="yes"/>
      <point x="221" y="683"/>
      <point x="217" y="687"/>
      <point x="212" y="689" type="curve" smooth="yes"/>
      <point x="209" y="691"/>
      <point x="203" y="693"/>
      <point x="200" y="693" type="curve" smooth="yes"/>
      <point x="197" y="694"/>
      <point x="191" y="696"/>
      <point x="188" y="698" type="curve" smooth="yes"/>
      <point x="181" y="702"/>
      <point x="181" y="702"/>
      <point x="173" y="699" type="curve" smooth="yes"/>
      <point x="166" y="696"/>
      <point x="162" y="696"/>
      <point x="155" y="697" type="curve" smooth="yes"/>
      <point x="150" y="698"/>
      <point x="143" y="698"/>
      <point x="139" y="697" type="curve" smooth="yes"/>
      <point x="136" y="696"/>
      <point x="130" y="694"/>
      <point x="126" y="692" type="curve" smooth="yes"/>
      <point x="123" y="690"/>
      <point x="118" y="687"/>
      <point x="116" y="685" type="curve" smooth="yes"/>
      <point x="113" y="683"/>
      <point x="110" y="679"/>
      <point x="109" y="676" type="curve" smooth="yes"/>
      <point x="108" y="674"/>
      <point x="106" y="668"/>
      <point x="105" y="663" type="curve" smooth="yes"/>
      <point x="104" y="658"/>
      <point x="101" y="652"/>
      <point x="99" y="649" type="curve" smooth="yes"/>
      <point x="96" y="646"/>
      <point x="93" y="644"/>
      <point x="91" y="644" type="curve" smooth="yes"/>
      <point x="90" y="644"/>
      <point x="82" y="642"/>
      <point x="75" y="639" type="curve" smooth="yes"/>
      <point x="68" y="637"/>
      <point x="60" y="635"/>
      <point x="56" y="635" type="curve" smooth="yes"/>
      <point x="52" y="635"/>
      <point x="45" y="637"/>
      <point x="42" y="638" type="curve" smooth="yes"/>
      <point x="38" y="640"/>
      <point x="33" y="643"/>
      <point x="32" y="645" type="curve" smooth="yes"/>
      <point x="30" y="647"/>
      <point x="28" y="651"/>
      <point x="27" y="656" type="curve" smooth="yes"/>
      <point x="25" y="662"/>
      <point x="25" y="667"/>
      <point x="27" y="677" type="curve" smooth="yes"/>
      <point x="28" y="685"/>
      <point x="29" y="694"/>
      <point x="30" y="697" type="curve" smooth="yes"/>
      <point x="30" y="700"/>
      <point x="32" y="705"/>
      <point x="35" y="708" type="curve" smooth="yes"/>
      <point x="37" y="711"/>
      <point x="41" y="717"/>
      <point x="43" y="722" type="curve" smooth="no"/>
      <point x="46" y="726"/>
      <point x="49" y="731"/>
      <point x="52" y="732" type="curve" smooth="no"/>
      <point x="54" y="734"/>
      <point x="59" y="736"/>
      <point x="62" y="737" type="curve" smooth="yes"/>
      <point x="66" y="738"/>
      <point x="73" y="741"/>
      <point x="76" y="743" type="curve" smooth="yes"/>
      <point x="80" y="745"/>
      <point x="88" y="747"/>
      <point x="94" y="748" type="curve" smooth="yes"/>
      <point x="102" y="749"/>
      <point x="108" y="751"/>
      <point x="116" y="755" type="curve" smooth="no"/>
      <point x="121" y="759"/>
      <point x="130" y="762"/>
      <point x="134" y="763" type="curve" smooth="yes"/>
      <point x="139" y="764"/>
      <point x="144" y="765"/>
    </contour>
  </outline>
  <lib>
    <dict>
      <key>com.fontlab.hintData</key>
      <dict>
	<key>hhints</key>
	<array>
	  <dict>
	    <key>position</key>	    <integer>333</integer>
	    <key>width</key>	    <integer>60</integer>
	  </dict>
	  <dict>
	    <key>position</key>	    <integer>342</integer>
	    <key>width</key>	    <integer>82</integer>
	  </dict>
	  <dict>
	    <key>position</key>	    <integer>524</integer>
	    <key>width</key>	    <integer>65</integer>
	  </dict>
	  <dict>
	    <key>position</key>	    <integer>693</integer>
	    <key>width</key>	    <integer>68</integer>
	  </dict>
	</array>
	<key>vhints</key>
	<array>
	  <dict>
	    <key>position</key>
	    <integer>237</integer>
	    <key>width</key>
	    <integer>83</integer>
	  </dict>
	  <dict>
	    <key>position</key>
	    <integer>239</integer>
	    <key>width</key>
	    <integer>74</integer>
	  </dict>
	</array>
      </dict>
    </dict>
  </lib>
</glyph>
